\relax 
\bibstyle{biophysj}
\citation{ha96}
\citation{haran03,schuler02,weiss00}
\citation{deniz01,gell06,ying00}
\citation{nir06}
\citation{ha96}
\citation{nir06}
\citation{vogelsang07,horrocks12}
\citation{deniz99}
\citation{kapanidis05,muller05,doose07}
\citation{eggeling01,nir06}
\newlabel{eq:efficiency}{{1}{2}}
\newlabel{eq:Eprod}{{2}{2}}
\citation{deniz01,gell06}
\citation{santoso10}
\citation{nir06}
\citation{barber12}
\citation{bayes63}
\citation{mackay03}
\citation{mckinney06,bronson09,bronson10,taylor10,taylor11}
\citation{yoon08}
\citation{turkcan12}
\citation{kugel12,guo11,he11}
\citation{kou05}
\citation{devore12,gopich07}
\citation{gopich03}
\citation{gopich07}
\citation{kou05,devore12}
\citation{schuler05}
\newlabel{eqn:symmetry}{{7}{6}}
\citation{deniz01}
\newlabel{tab:shared}{{}{9}}
\bibdata{bj_inference_paper}
\bibcite{ha96}{{1}{1996}{{Ha et~al.}}{{Ha, Enderle, Ogletree, Chemla, Selvin, and Weiss}}}
\bibcite{haran03}{{2}{2003}{{Haran}}{{}}}
\bibcite{schuler02}{{3}{2002}{{Schuler et~al.}}{{Schuler, Lipman, and Eaton}}}
\bibcite{weiss00}{{4}{2000}{{Weiss}}{{}}}
\bibcite{deniz01}{{5}{2001}{{Deniz et~al.}}{{Deniz, Lawrence, Dahan, Chemla, Schultz, and Weiss}}}
\bibcite{gell06}{{6}{2006}{{Gell et~al.}}{{Gell, Brockwell, and Smith}}}
\bibcite{ying00}{{7}{2000}{{Ying et~al.}}{{Ying, Wallace, Balsubramanian, and Klenerman}}}
\bibcite{nir06}{{8}{2006}{{Nir et~al.}}{{Nir, Michalet, Hamadani, Laurence, Neuhauser, Kovchegov, and Weiss}}}
\bibcite{vogelsang07}{{9}{2007}{{Vogelsang et~al.}}{{Vogelsang, Doose, Sauer, and Tinnefeld}}}
\bibcite{horrocks12}{{10}{2012}{{Horrocks et~al.}}{{Horrocks, Li, Shim, Ranasinghe, Clarke, Huck, Abell, and Klenerman}}}
\bibcite{deniz99}{{11}{1999}{{Deniz et~al.}}{{Deniz, Laurence, Grunwell, Ha, Chemla, Weiss, and Schultz}}}
\bibcite{kapanidis05}{{12}{2005}{{Kapanidis et~al.}}{{Kapanidis, Laurence, Lee, Margeat, Kong, and Weiss}}}
\bibcite{muller05}{{13}{2005}{{Muller et~al.}}{{Muller, Zaychikov, Brauchle, and Lamb}}}
\bibcite{doose07}{{14}{2006}{{Doose et~al.}}{{Doose, Heilemann, Michalet, Weiss, and Kapanidis}}}
\bibcite{eggeling01}{{15}{2001}{{Eggeling et~al.}}{{Eggeling, Berger, Brand, Fries, Schaffer, Volkmer, and C.A.M.}}}
\bibcite{santoso10}{{16}{2010}{{Santoso et~al.}}{{Santoso, Torella, and Kapanidis}}}
\bibcite{barber12}{{17}{2012}{{Barber}}{{}}}
\bibcite{bayes63}{{18}{1763}{{Bayes and Price}}{{}}}
\bibcite{mackay03}{{19}{2003}{{MacKay}}{{}}}
\bibcite{mckinney06}{{20}{2006}{{McKinney et~al.}}{{McKinney, Joo, and Ha}}}
\bibcite{bronson09}{{21}{2009}{{Bronson et~al.}}{{Bronson, Fei, Hofman, Gonzalez, and Wiggins}}}
\bibcite{bronson10}{{22}{2010}{{Bronson et~al.}}{{Bronson, Hofman, Fei, Gonzales, and Wiggins}}}
\bibcite{taylor10}{{23}{2010}{{Taylor et~al.}}{{Taylor, Makarov, and Landes}}}
\bibcite{taylor11}{{24}{2011}{{Taylor and Landes}}{{}}}
\bibcite{yoon08}{{25}{2008}{{Yoon et~al.}}{{Yoon, Bruckbauer, Fitzgerald, and Klenerman}}}
\bibcite{turkcan12}{{26}{2012}{{Turkcan et~al.}}{{Turkcan, Alexandrou, and Masson}}}
\bibcite{kugel12}{{27}{2011}{{Kugel et~al.}}{{Kugel, Muschielok, and Michaelis}}}
\bibcite{guo11}{{28}{2011}{{Guo et~al.}}{{Guo, He, Monnier, Sun, Wohland, and Bathe}}}
\bibcite{he11}{{29}{2011}{{He et~al.}}{{He, Guo, and Bathe}}}
\bibcite{kou05}{{30}{2005}{{Kou et~al.}}{{Kou, Xie, and Liu}}}
\bibcite{devore12}{{31}{2012}{{DeVore et~al.}}{{DeVore, Gull, and Johnson}}}
\bibcite{gopich07}{{32}{2007}{{Gopich and Szabo}}{{}}}
\bibcite{gopich03}{{33}{2003}{{Gopich and Szabo}}{{}}}
\bibcite{schuler05}{{34}{2005}{{Schuler}}{{}}}
\newlabel{tab:shared}{{}{17}}
\@writefile{lof}{\contentsline {figure}{\numberline {1}{\ignorespaces }}{21}}
\newlabel{fig:figure_diagram_scheme}{{1}{21}}
\@writefile{lof}{\contentsline {figure}{\numberline {2}{\ignorespaces }}{22}}
\newlabel{fig:flow_single}{{2}{22}}
\@writefile{lof}{\contentsline {figure}{\numberline {3}{\ignorespaces }}{23}}
\newlabel{fig:plate_DAG}{{3}{23}}
\@writefile{lof}{\contentsline {figure}{\numberline {4}{\ignorespaces }}{24}}
\newlabel{fig:fig4_benchmark_synthetic}{{4}{24}}
\@writefile{lof}{\contentsline {figure}{\numberline {5}{\ignorespaces }}{25}}
\newlabel{fig:fig5_synthetic_AndSumInfer}{{5}{25}}
\@writefile{lof}{\contentsline {figure}{\numberline {6}{\ignorespaces }}{26}}
\newlabel{fig:fig6_synthetic_multi}{{6}{26}}
